{
  "annotations": {
    "list": [
      {
        "builtIn": 1,
        "datasource": "-- Grafana --",
        "enable": true,
        "hide": true,
        "iconColor": "rgba(0, 211, 255, 1)",
        "name": "Annotations & Alerts",
        "target": {
          "limit": 100,
          "matchAny": false,
          "tags": [],
          "type": "dashboard"
        },
        "type": "dashboard"
      }
    ]
  },
  "editable": true,
  "fiscalYearStartMonth": 0,
  "graphTooltip": 0,
  "links": [],
  "liveNow": false,
  "panels": [
    {
      "gridPos": {
        "h": 18,
        "w": 6,
        "x": 0,
        "y": 0
      },
      "id": 2,
      "options": {
        "dedupStrategy": "none",
        "enableLogDetails": true,
        "prettifyLogMessage": false,
        "showCommonLabels": false,
        "showLabels": false,
        "showTime": true,
        "sortOrder": "Descending",
        "wrapLogMessage": false
      },
      "targets": [
        {
          "datasource": {
            "type": "loki",
            "uid": "14fa4c3e-a17c-4180-bba1-5b126c254c4e"
          },
          "expr": "{job=\"$PREFIX-bot\"}",
          "refId": "Logs"
        }
      ],
      "title": "Logs",
      "type": "logs"
    },
    {
      "datasource": {
        "type": "datasource",
        "uid": "-- Mixed --"
      },
      "gridPos": {
        "h": 8,
        "w": 6,
        "x": 6,
        "y": 0
      },
      "id": 12,
      "options": {
        "dedupStrategy": "none",
        "enableLogDetails": true,
        "prettifyLogMessage": false,
        "showCommonLabels": false,
        "showLabels": false,
        "showTime": false,
        "sortOrder": "Descending",
        "wrapLogMessage": false
      },
      "pluginVersion": "8.4.4",
      "targets": [
        {
          "datasource": {
            "type": "loki",
            "uid": "14fa4c3e-a17c-4180-bba1-5b126c254c4e"
          },
          "expr": "{job=\"$PREFIX-bot\"} |= \"message\" | pattern \"<action> message from '<tag>' in '<channel>'\" | line_format \"[{{.action}}] {{.tag}} in {{.channel}}\"",
          "refId": "A"
        }
      ],
      "title": "Message Logs",
      "type": "logs"
    },
    {
      "datasource": {
        "type": "prometheus",
        "uid": "d27957e3-2a46-4901-a759-4be6ddcd3335"
      },
      "description": "",
      "fieldConfig": {
        "defaults": {
          "color": {
            "mode": "thresholds"
          },
          "mappings": [
            {
              "options": {
                "0": {
                  "color": "dark-red",
                  "index": 1,
                  "text": "Down"
                },
                "1": {
                  "color": "dark-green",
                  "index": 0,
                  "text": "Up"
                }
              },
              "type": "value"
            }
          ],
          "thresholds": {
            "mode": "absolute",
            "steps": [
              {
                "color": "green",
                "value": null
              }
            ]
          }
        },
        "overrides": []
      },
      "gridPos": {
        "h": 7,
        "w": 6,
        "x": 12,
        "y": 0
      },
      "id": 6,
      "options": {
        "colorMode": "value",
        "graphMode": "area",
        "justifyMode": "auto",
        "orientation": "auto",
        "reduceOptions": {
          "calcs": [
            "lastNotNull"
          ],
          "fields": "",
          "values": false
        },
        "textMode": "auto"
      },
      "pluginVersion": "8.4.4",
      "targets": [
        {
          "datasource": {
            "type": "prometheus",
            "uid": "d27957e3-2a46-4901-a759-4be6ddcd3335"
          },
          "exemplar": true,
          "expr": "up{job=\"$PREFIX-bot\"}",
          "interval": "",
          "legendFormat": "{{job}}",
          "refId": "A"
        }
      ],
      "title": "Bot-State",
      "type": "stat"
    },
    {
      "datasource": {
        "type": "datasource",
        "uid": "-- Mixed --"
      },
      "fieldConfig": {
        "defaults": {
          "color": {
            "mode": "palette-classic"
          },
          "custom": {
            "hideFrom": {
              "legend": false,
              "tooltip": false,
              "viz": false
            }
          },
          "mappings": []
        },
        "overrides": []
      },
      "gridPos": {
        "h": 11,
        "w": 6,
        "x": 12,
        "y": 7
      },
      "id": 10,
      "options": {
        "displayLabels": [],
        "legend": {
          "displayMode": "hidden",
          "placement": "bottom"
        },
        "pieType": "pie",
        "reduceOptions": {
          "calcs": [
            "max"
          ],
          "fields": "/.*/",
          "values": false
        },
        "tooltip": {
          "mode": "single",
          "sort": "none"
        }
      },
      "pluginVersion": "8.4.4",
      "targets": [
        {
          "datasource": {
            "uid": "d27957e3-2a46-4901-a759-4be6ddcd3335"
          },
          "exemplar": true,
          "expr": "sum by (user_id) (message_creation_bucket) / 4",
          "hide": false,
          "interval": "",
          "legendFormat": "{{User}}",
          "refId": "Message Metrics"
        },
        {
          "datasource": {
            "uid": "ac6d12d1-1377-40fa-a7e5-f0840a8e1489"
          },
          "format": "table",
          "group": [],
          "hide": false,
          "metricColumn": "none",
          "rawQuery": true,
          "rawSql": "SELECT\n  created_at AS \"time\",\n  id AS \"user_id\",\n  tag\nFROM discord_user",
          "refId": "User LUT",
          "select": [
            [
              {
                "params": [
                  "tag"
                ],
                "type": "column"
              }
            ]
          ],
          "table": "discord_user",
          "timeColumn": "created_at",
          "timeColumnType": "timestamp",
          "where": [
            {
              "name": "${DOLLAR}__timeFilter",
              "params": [],
              "type": "macro"
            }
          ]
        }
      ],
      "title": "Member Engagement",
      "transformations": [
        {
          "id": "labelsToFields",
          "options": {}
        },
        {
          "id": "merge",
          "options": {}
        },
        {
          "id": "groupBy",
          "options": {
            "fields": {
              "Value": {
                "aggregations": [
                  "max"
                ],
                "operation": "aggregate"
              },
              "tag": {
                "aggregations": [
                  "firstNotNull"
                ],
                "operation": "aggregate"
              },
              "user_id": {
                "aggregations": [
                  "firstNotNull"
                ],
                "operation": "groupby"
              }
            }
          }
        },
        {
          "id": "organize",
          "options": {
            "excludeByName": {
              "user_id": true
            },
            "indexByName": {
              "Value (max)": 1,
              "tag (firstNotNull)": 0,
              "user_id": 2
            },
            "renameByName": {
              "Value (max)": "Messages",
              "tag (firstNotNull)": "User",
              "user_id": "User ID"
            }
          }
        },
        {
          "id": "rowsToFields",
          "options": {}
        }
      ],
      "type": "piechart"
    },
    {
      "datasource": {
        "type": "prometheus",
        "uid": "d27957e3-2a46-4901-a759-4be6ddcd3335"
      },
      "fieldConfig": {
        "defaults": {
          "color": {
            "mode": "thresholds"
          },
          "mappings": [],
          "noValue": "0",
          "thresholds": {
            "mode": "absolute",
            "steps": [
              {
                "color": "green",
                "value": null
              }
            ]
          }
        },
        "overrides": []
      },
      "gridPos": {
        "h": 5,
        "w": 6,
        "x": 6,
        "y": 8
      },
      "id": 4,
      "options": {
        "colorMode": "value",
        "graphMode": "area",
        "justifyMode": "auto",
        "orientation": "auto",
        "reduceOptions": {
          "calcs": [
            "lastNotNull"
          ],
          "fields": "",
          "values": false
        },
        "textMode": "auto"
      },
      "pluginVersion": "8.4.4",
      "targets": [
        {
          "datasource": {
            "type": "prometheus",
            "uid": "d27957e3-2a46-4901-a759-4be6ddcd3335"
          },
          "exemplar": true,
          "expr": "ceil(sum(increase(message_creation_sum[${DOLLAR}__range])))",
          "hide": false,
          "interval": "",
          "legendFormat": "",
          "refId": "A"
        }
      ],
      "title": "Total Messages in Timeframe",
      "type": "stat"
    },
    {
      "datasource": {
        "type": "datasource",
        "uid": "-- Mixed --"
      },
      "fieldConfig": {
        "defaults": {
          "color": {
            "mode": "thresholds"
          },
          "mappings": [],
          "noValue": "0",
          "thresholds": {
            "mode": "absolute",
            "steps": [
              {
                "color": "green",
                "value": null
              },
              {
                "color": "red",
                "value": 80
              }
            ]
          }
        },
        "overrides": []
      },
      "gridPos": {
        "h": 5,
        "w": 6,
        "x": 6,
        "y": 13
      },
      "id": 8,
      "options": {
        "colorMode": "value",
        "graphMode": "area",
        "justifyMode": "auto",
        "orientation": "auto",
        "reduceOptions": {
          "calcs": [
            "lastNotNull"
          ],
          "fields": "",
          "values": false
        },
        "textMode": "auto"
      },
      "pluginVersion": "8.4.4",
      "targets": [
        {
          "datasource": {
            "uid": "d27957e3-2a46-4901-a759-4be6ddcd3335"
          },
          "exemplar": true,
          "expr": "ceil(sum(increase(interaction_usage_sum[${DOLLAR}__range])))",
          "interval": "",
          "legendFormat": "",
          "refId": "A"
        }
      ],
      "title": "Interaction Usage in Timeframe",
      "type": "stat"
    }
  ],
  "refresh": "10s",
  "schemaVersion": 35,
  "style": "dark",
  "tags": [],
  "templating": {
    "list": []
  },
  "time": {
    "from": "now-1h",
    "to": "now"
  },
  "timepicker": {},
  "timezone": "",
  "title": "Dashboard",
  "uid": "AuQ2FjU7k",
  "version": 2,
  "weekStart": ""
}
